…
    ## MULTIPOLYGON (((705428.2 49242.97, 705860.3 274...

``` r
nc1 <- nc %>% select(BIR74, SID74, NAME, State) %>%
    st_set_agr(c(BIR74 = "aggregate", SID74 = "aggregate", NAME = "identity", State = "identity"))
nc1
```

    ## Simple feature collection with 100 features and 4 fields
    ## Attribute-geometry relationship: 0 constant, 2 aggregate, 2 identity
    ## geometry type:  MULTIPOLYGON
    ## dimension:      XY
    ## bbox:           xmin: 123829.8 ymin: 14740.06 xmax: 930518.6 ymax: 318255.5
    ## projected CRS:  NAD83 / North Carolina
    ## # A tibble: 100 x 5
    ##    BIR74 SID74 NAME     State                                               geom
    ##    <dbl> <dbl> <chr>    <chr>                                 <MULTIPOLYGON [m]>
    ##  1  1091     1 Ashe     North Ca~ (((387344.7 278382.4, 381334.1 282769, 379438~
    ##  2   487     0 Allegha~ North Ca~ (((408601.4 292419.4, 408564.7 293980.2, 4066~
    ##  3  3188     5 Surry    North Ca~ (((478715.7 277484.2, 476934.3 278861, 471501~
    ##  4   508     1 Curritu~ North Ca~ (((878193.4 289118.8, 877381 291107.7, 875993~
    ##  5  1421     9 Northam~ North Ca~ (((769834.9 277787.4, 768364 274833.2, 762615~
    ##  6  1452     7 Hertford North Ca~ (((812327.7 277867.5, 791157.9 277003.1, 7898~
    ##  7   286     0 Camden   North Ca~ (((878193.4 289118.8, 883270.1 275304.7, 8811~
    ##  8   420     0 Gates    North Ca~ (((828444.5 290086.5, 824767.3 287156.9, 8208~
    ##  9   968     4 Warren   North Ca~ (((671746.3 278680.2, 674042.4 282229.8, 6704~
    ## 10  1612     1 Stokes   North Ca~ (((517435.1 277851.9, 479039 279092, 481101.2~
    ## # ... with 90 more rows
…
